<?xml version="1.0" encoding="UTF-8"?>
<svg xmlns="http://www.w3.org/2000/svg"
     xmlns:xlink="http://www.w3.org/1999/xlink"
     xmlns:gadfly="http://www.gadflyjl.org/ns"
     version="1.2"
     width="228.6mm" height="101.6mm" viewBox="0 0 228.6 101.6"
     stroke="none"
     fill="#000000"
     stroke-width="0.3"
     font-size="3.88"
>
<g class="plotroot yscalable" id="img-d97da412-1">
  <g font-size="4.94" font-family="'PT Sans','Helvetica Neue','Helvetica',sans-serif" fill="#564A55" stroke="#000000" stroke-opacity="0.000" id="img-d97da412-2">
    <text x="124.62" y="89" text-anchor="middle" dy="0.6em">Eigenvectors</text>
  </g>
  <g class="guide xlabels" font-size="4.23" font-family="'PT Sans Caption','Helvetica Neue','Helvetica',sans-serif" fill="#6C606B" id="img-d97da412-3">
    <text x="30.59" y="80.99" text-anchor="middle" dy="0.6em">1</text>
    <text x="40.48" y="80.99" text-anchor="middle" dy="0.6em">2</text>
    <text x="50.38" y="80.99" text-anchor="middle" dy="0.6em">3</text>
    <text x="60.28" y="80.99" text-anchor="middle" dy="0.6em">4</text>
    <text x="70.18" y="80.99" text-anchor="middle" dy="0.6em">5</text>
    <text x="80.08" y="80.99" text-anchor="middle" dy="0.6em">6</text>
    <text x="89.97" y="80.99" text-anchor="middle" dy="0.6em">7</text>
    <text x="99.87" y="80.99" text-anchor="middle" dy="0.6em">8</text>
    <text x="109.77" y="80.99" text-anchor="middle" dy="0.6em">9</text>
    <text x="119.67" y="80.99" text-anchor="middle" dy="0.6em">10</text>
    <text x="129.57" y="80.99" text-anchor="middle" dy="0.6em">11</text>
    <text x="139.47" y="80.99" text-anchor="middle" dy="0.6em">12</text>
    <text x="149.36" y="80.99" text-anchor="middle" dy="0.6em">13</text>
    <text x="159.26" y="80.99" text-anchor="middle" dy="0.6em">14</text>
    <text x="169.16" y="80.99" text-anchor="middle" dy="0.6em">15</text>
    <text x="179.06" y="80.99" text-anchor="middle" dy="0.6em">16</text>
    <text x="188.96" y="80.99" text-anchor="middle" dy="0.6em">17</text>
    <text x="198.85" y="80.99" text-anchor="middle" dy="0.6em">18</text>
    <text x="208.75" y="80.99" text-anchor="middle" dy="0.6em">19</text>
    <text x="218.65" y="80.99" text-anchor="middle" dy="0.6em">20</text>
  </g>
<g clip-path="url(#img-d97da412-4)">
  <g id="img-d97da412-5">
    <g pointer-events="visible" opacity="1" fill="#000000" fill-opacity="0.000" stroke="#000000" stroke-opacity="0.000" class="guide background" id="img-d97da412-6">
      <rect x="25.64" y="5" width="197.96" height="74.99"/>
    </g>
    <g class="guide ygridlines xfixed" stroke-dasharray="0.5,0.5" stroke-width="0.2" stroke="#D0D0E0" id="img-d97da412-7">
      <path fill="none" d="M25.64,77.99 L 223.6 77.99"/>
      <path fill="none" d="M25.64,63.79 L 223.6 63.79"/>
      <path fill="none" d="M25.64,49.6 L 223.6 49.6"/>
      <path fill="none" d="M25.64,35.4 L 223.6 35.4"/>
      <path fill="none" d="M25.64,21.2 L 223.6 21.2"/>
      <path fill="none" d="M25.64,7 L 223.6 7"/>
    </g>
    <g class="guide xgridlines yfixed" stroke-dasharray="0.5,0.5" stroke-width="0.2" stroke="#D0D0E0" id="img-d97da412-8">
      <path fill="none" d="M35.53,5 L 35.53 79.99"/>
      <path fill="none" d="M45.43,5 L 45.43 79.99"/>
      <path fill="none" d="M55.33,5 L 55.33 79.99"/>
      <path fill="none" d="M65.23,5 L 65.23 79.99"/>
      <path fill="none" d="M75.13,5 L 75.13 79.99"/>
      <path fill="none" d="M85.03,5 L 85.03 79.99"/>
      <path fill="none" d="M94.92,5 L 94.92 79.99"/>
      <path fill="none" d="M104.82,5 L 104.82 79.99"/>
      <path fill="none" d="M114.72,5 L 114.72 79.99"/>
      <path fill="none" d="M124.62,5 L 124.62 79.99"/>
      <path fill="none" d="M134.52,5 L 134.52 79.99"/>
      <path fill="none" d="M144.41,5 L 144.41 79.99"/>
      <path fill="none" d="M154.31,5 L 154.31 79.99"/>
      <path fill="none" d="M164.21,5 L 164.21 79.99"/>
      <path fill="none" d="M174.11,5 L 174.11 79.99"/>
      <path fill="none" d="M184.01,5 L 184.01 79.99"/>
      <path fill="none" d="M193.91,5 L 193.91 79.99"/>
      <path fill="none" d="M203.8,5 L 203.8 79.99"/>
      <path fill="none" d="M213.7,5 L 213.7 79.99"/>
    </g>
    <g class="plotpanel" id="img-d97da412-9">
      <g shape-rendering="crispEdges" stroke-width="0.3" id="img-d97da412-10">
        <g stroke="#000000" stroke-opacity="0.000" class="geometry" fill="#00BFFF" id="img-d97da412-11">
          <rect x="25.61" y="63.79" width="9.95" height="12.16"/>
          <rect x="35.51" y="63.79" width="9.95" height="6.6"/>
          <rect x="45.41" y="63.79" width="9.95" height="5.05"/>
          <rect x="55.31" y="63.79" width="9.95" height="4.01"/>
          <rect x="65.2" y="63.79" width="9.95" height="3.11"/>
          <rect x="75.1" y="63.79" width="9.95" height="2.41"/>
          <rect x="85" y="63.79" width="9.95" height="0.34"/>
          <rect x="94.9" y="33.42" width="9.95" height="30.38"/>
          <rect x="104.8" y="31.86" width="9.95" height="31.94"/>
          <rect x="114.7" y="31.86" width="9.95" height="31.94"/>
          <rect x="124.59" y="26.24" width="9.95" height="37.56"/>
          <rect x="134.49" y="23.48" width="9.95" height="40.31"/>
          <rect x="144.39" y="22.38" width="9.95" height="41.42"/>
          <rect x="154.29" y="21.66" width="9.95" height="42.14"/>
          <rect x="164.19" y="21.55" width="9.95" height="42.24"/>
          <rect x="174.08" y="21.02" width="9.95" height="42.78"/>
          <rect x="183.98" y="20.83" width="9.95" height="42.96"/>
          <rect x="193.88" y="20.13" width="9.95" height="43.67"/>
          <rect x="203.78" y="19.57" width="9.95" height="44.23"/>
          <rect x="213.68" y="18.41" width="9.95" height="45.38"/>
        </g>
      </g>
    </g>
  </g>
</g>
  <g class="guide ylabels" font-size="4.23" font-family="'PT Sans Caption','Helvetica Neue','Helvetica',sans-serif" fill="#6C606B" id="img-d97da412-12">
    <text x="24.64" y="77.99" text-anchor="end" dy="0.35em">10<tspan style="dominant-baseline:inherit" dy="-0.6em" font-size="83%">-5</tspan><tspan dy="0.498000em"></tspan></text>
    <text x="24.64" y="63.79" text-anchor="end" dy="0.35em">10<tspan style="dominant-baseline:inherit" dy="-0.6em" font-size="83%">0</tspan><tspan dy="0.498000em"></tspan></text>
    <text x="24.64" y="49.6" text-anchor="end" dy="0.35em">10<tspan style="dominant-baseline:inherit" dy="-0.6em" font-size="83%">5</tspan><tspan dy="0.498000em"></tspan></text>
    <text x="24.64" y="35.4" text-anchor="end" dy="0.35em">10<tspan style="dominant-baseline:inherit" dy="-0.6em" font-size="83%">10</tspan><tspan dy="0.498000em"></tspan></text>
    <text x="24.64" y="21.2" text-anchor="end" dy="0.35em">10<tspan style="dominant-baseline:inherit" dy="-0.6em" font-size="83%">15</tspan><tspan dy="0.498000em"></tspan></text>
    <text x="24.64" y="7" text-anchor="end" dy="0.35em">10<tspan style="dominant-baseline:inherit" dy="-0.6em" font-size="83%">20</tspan><tspan dy="0.498000em"></tspan></text>
  </g>
  <g font-size="4.94" font-family="'PT Sans','Helvetica Neue','Helvetica',sans-serif" fill="#564A55" stroke="#000000" stroke-opacity="0.000" id="img-d97da412-13">
    <text x="9.3" y="40.5" text-anchor="middle" dy="0.35em" transform="rotate(-90, 9.3, 42.5)">Eigenvalues</text>
  </g>
</g>
<defs>
  <clipPath id="img-d97da412-4">
  <path d="M25.64,5 L 223.6 5 223.6 79.99 25.64 79.99" />
</clipPath>
</defs>
</svg>
